1 10 20
100 200 125
201 210 89
900 1000 174
10 1 20
1 99999 351
99999 1 351
1 561 144
3291 1176 217
8884 2134 262
8239 21 262
9609 8598 260
4719 8421 262
9275 6234 260
9124 7614 252
1901 7606 262
3912 1709 238
8232 5545 262
9698 3891 262
3105 4908 238
7988 5615 262
5368 69 238
4478 4869 197
5039 8740 262
5432 4690 210
7498 5588 262
312 2268 183
3722 3961 189
8376 2582 262
9020 1019 262
8897 103 262
1182 395 182
8300 2832 262
9730 5107 262
390 7167 262
5998 5771 218
882 4998 238
5069 9714 262
3327 1440 217
2946 6534 262
5585 6549 262
490 1703 182
320 9282 262
165 4708 238
4947 470 238
4011 273 238
5336 9184 262
8360 2928 262
2990 9761 262
7176 4336 262
4088 8438 262
4224 7849 262
2138 4110 238
8467 6959 252
726 4159 238
1137 4155 238
6789 743 262
8266 9877 260
532 4560 238
5648 2422 238
8582 8204 234
1209 339 182
6763 6663 182
467 7323 262
1203 5925 238
1855 1848 131
9523 409 262
4717 5093 210
3982 6844 262
2871 9935 262
363 731 171
5611 7107 262
9969 1336 262
8415 9231 247
3572 9878 262
5297 2899 238
8891 4391 262
9008 3694 262
2915 523 209
9726 2412 262
4151 8221 262
2750 1202 209
2682 3186 217
8045 9621 260
6231 5459 262
279 6458 262
9354 1867 262
9869 1142 262
6746 343 262
7709 7906 221
7423 665 262
5804 4699 236
524 856 171
6757 6025 262
7054 3870 262
186 8104 262
7843 8280 252
8965 3113 262
1563 2530 209
9994 5485 262
4979 4900 210
1405 4299 238
8096 3269 262
2500 1987 209
4502 9515 262
4065 475 238
4368 9342 262
2256 6237 262
2357 7746 262
1206 6716 262
9576 3494 262
4243 295 238
9882 8839 260
7737 6033 262
6818 2083 262
3857 5576 236
782 7373 262
3841 4774 215
3688 3386 194
7114 652 262
2671 4036 238
9577 784 262
1391 1370 159
7458 1747 262
3690 1657 217
5536 5785 236
2444 9445 262
7171 4973 262
8771 9156 247
5332 8124 262
1766 3933 238
8867 4390 262
8071 8607 234
7712 8336 252
4077 4512 215
72 9724 262
126 1792 182
6736 5090 262
480 9421 262
8164 3225 262
7350 5062 262
9623 4348 262
3301 4270 238
1500 3810 238
9825 8773 260
5395 2477 238
4420 8770 262
3742 44 238
559 6303 262
2417 5142 238
753 6539 262
5967 2997 238
8095 8053 190
7353 4590 262
942 2452 183
2937 6600 262
4347 648 238
6345 3493 262
1048 8374 262
8492 270 262
1171 4045 238
9661 2729 262
4957 9699 262
1213 2587 209
8085 9525 260
9071 4100 262
6874 1639 262
2356 2000 183
8200 9006 247
