....................
----------------------------------------------------------------------
Ran 20 tests in 0.669s

OK
Name             Stmts   Miss Branch BrPart  Cover   Missing
------------------------------------------------------------
Collatz.py          29      0     12      0   100%
TestCollatz.py      86      0      0      0   100%
------------------------------------------------------------
TOTAL              115      0     12      0   100%
