1 10 20
100 200 125
201 210 89
900 1000 174
1 1 1
1 2 2
100000 101000 341
100 800 171
999998 999999 259
500 510 111
200 300 128
300 320 131
888 900 148
70 71 103
500000 500009 152
1 6 9
16 25 24
1 300 128
400 420 134
90 100 119
99 107 101
50 60 113
20 700 145
20 40 112
1 12 20
30 40 107
40 80 116
80 84 111
30 34 107
1 20 21
2 20 21
3 20 21
4 20 21
5 10 20
800 810 73
810 820 135
777777 777778 155
650 670 145
123 231 128
109 127 114
45672 45690 146
1 2021 182
2023 3200 217
4300 4500 215
2300 2390 183
70 700 145
20 81 116
90 103 119
238 300 123
539 620 137
4390 5000 210
64 164 122
340 600 142
549 555 137
549 549 93
549 600 137
10 582 144
23 43 112
85 98 119
43 43 30
17 71 113
1 43 112
57031 57802 304
329 329 51
570 600 119
702 710 171
3270 3330 181
570 571 106
283 383 144
32759 33000 267
431 530 142
572 1000 179
1000 2000 182
1000 1020 156
2000 2200 170
100 300 128
6792 7000 257
712 812 153
800 865 148
436 543 142
436 976 179
10 120 119
70 426 144
42 87 116
4269 4311 171
759 800 153
80012 80100 289
327 500 144
327 400 144
609 650 145
236 298 123
187 200 120
65 150 122
12 327 144
470 500 142
327 403 144
570 650 145
470 4700 238
1000 3000 217
3270 3303 137
28 501 144
127 270 128
127 571 144
