.......................
----------------------------------------------------------------------
Ran 23 tests in 2.244s

OK
Name             Stmts   Miss Branch BrPart  Cover   Missing
------------------------------------------------------------
Collatz.py          33      0     14      0   100%
TestCollatz.py     108      5      0      0    95%   107-108, 144-146
------------------------------------------------------------
TOTAL              141      5     14      0    97%
